…
With the exception of two very lowly expressed genes, they’re all
zero-count genes. Hence for convenience, we’ll remove them from the data
set.

``` r
rnaseq_count_table %>% 
  # identify par_y genes
  filter(grepl("PAR_Y", ensembl_id)) %>% 
  rowwise() %>% 
  # calculate gene-wise sum
  mutate(count = sum(c_across(cols = -ensembl_id))) %>% 
  dplyr::select(ensembl_id, count)
```

    # A tibble: 45 × 2
    # Rowwise: 
       ensembl_id               count
       <chr>                    <dbl>
     1 ENSG00000228572.7_PAR_Y      0
     2 ENSG00000182378.14_PAR_Y     0
     3 ENSG00000178605.13_PAR_Y     0
     4 ENSG00000226179.6_PAR_Y      0
     5 ENSG00000167393.17_PAR_Y     0
     6 ENSG00000281849.3_PAR_Y      0
     7 ENSG00000275287.5_PAR_Y      0
     8 ENSG00000280767.3_PAR_Y      0
     9 ENSG00000234958.6_PAR_Y      0
    10 ENSG00000229232.6_PAR_Y      0
    # … with 35 more rows
…
